models/2020/battery/data/Waveform_2019-11-22_223708_452_-1.csv

Model,RTH1004
SerialNumber,103234
Firmware Version,'1.60.3.3'

Waveform Time Stamp,2019-11-22 22:37:08.452,2019-11-22 22:37:08.452,2019-11-22 22:37:08.452,2019-11-22 22:37:08.452
Waveform Type,ANALOG,,,
Acquisition Mode,SAMPLE,,,
Horizontal Unit,s,,,
Horizontal Scale,50,,,
Horizontal Position,7.105e-15,,,
Reference Point,10 %,,,
Sample Interval,0.2,,,
Record Length,2500,,,
Probe Setting,'10:1','10 mV/A','10:1','10:1'
Vertical Unit,V,A,V,V
Vertical Scale,5,20,5,5
Vertical Position,-3,-3,-3,-3
Vertical Offset,0,0,0,0
History Index,-1,-1,-1,-1
History Time Stamp,-549.596706322392,-549.596706322392,-549.596706322392,-549.596706322392
,,,,
TIME,CH1,CH2,CH3,CH4
-50,0.17647,3.2157,0.33333,19.549
-49.8,0.4902,3.5294,0.33333,19.941
-49.6,0.33333,3.5294,0.4902,20.098
-49.4,0.64706,3.2157,0.64706,20.098
-49.2,0.80392,3.5294,0.41176,20.098
-49,0.4902,3.5294,0.41176,20.255
-48.8,0.17647,3.5294,0.41176,21.039
-48.6,0.56863,2.5882,0.56863,22.608
-48.4,0.41176,3.5294,0.4902,24.569
-48.2,0.72549,3.2157,0.64706,25.51
-48,0.56863,3.2157,0.4902,30.137
-47.8,0.64706,3.2157,0.41176,28.569
-47.6,0.56863,2.902,0.41176,29.588
-47.4,0.56863,3.2157,0.33333,30.922
-47.2,0.41176,2.902,0.41176,30.843
-47,0.56863,2.5882,0.41176,30.843
-46.8,0.80392,2.5882,0.56863,30.843
-46.6,0.41176,1.6471,0.41176,30.922
-46.4,0.80392,2.5882,0.64706,30.922
-46.2,0.72549,1.9608,0.64706,30.922
-46,0.64706,1.9608,0.56863,30.922
-45.8,0.41176,2.2745,0.41176,31.078
-45.6,0.4902,1.9608,0.41176,30.843
-45.4,0.4902,2.2745,0.4902,30.843
-45.2,0.72549,2.2745,0.56863,30.765
-45,0.64706,2.5882,0.72549,31
-44.8,0.4902,1.9608,0.4902,30.922
-44.6,0.4902,2.2745,0.56863,31
-44.4,0.72549,2.5882,0.64706,30.686
-44.2,0.33333,2.902,0.4902,30.922
-44,0.4902,2.2745,0.41176,30.922
-43.8,0.33333,2.2745,0.33333,30.922
-43.6,0.2549,1.9608,0.33333,31
-43.4,0.41176,1.9608,0.2549,31
-43.2,0.17647,1.9608,0.2549,30.922
-43,0.098039,2.2745,0.17647,31
-42.8,0.17647,2.2745,0.2549,31.078
-42.6,0.019608,1.9608,0.17647,30.922
-42.4,-0.13725,2.5882,0.17647,30.922
-42.2,-0.058824,2.2745,-0.13725,30.843
-42,-0.058824,1.6471,0.019608,31
-41.8,-0.21569,1.6471,0.098039,30.922
-41.6,-0.29412,2.5882,-0.058824,31
-41.4,-0.21569,2.5882,0.019608,31.078
-41.2,-0.21569,1.9608,-0.13725,31.157
-41,-0.52941,1.9608,-0.21569,31
-40.8,-0.45098,1.9608,-0.21569,31
-40.6,-0.60784,2.2745,-0.29412,30.765
-40.4,-0.76471,1.9608,-0.45098,31.078
-40.2,-0.76471,2.2745,-0.45098,31
-40,-0.92157,1.9608,-0.52941,30.765
-39.8,-0.84314,2.902,-0.45098,31
-39.6,-1,1.9608,-0.60784,30.843
-39.4,-0.92157,1.9608,-0.52941,31
-39.2,-0.92157,2.2745,-0.60784,30.922
-39,-1,2.5882,-0.68627,30.922
-38.8,-0.92157,1.9608,-0.52941,31.078
-38.6,-0.84314,2.2745,-0.45098,30.922
-38.4,-0.76471,2.902,-0.45098,31
-38.2,-0.52941,2.2745,-0.13725,30.922
-38,-0.76471,2.902,-0.29412,31.078
-37.8,-0.84314,1.6471,-0.52941,31
-37.6,-0.76471,2.2745,-0.37255,30.922
-37.4,-0.29412,1.9608,-0.29412,31
-37.2,-0.60784,2.902,-0.29412,30.843
-37,-0.45098,3.2157,-0.45098,30.843
-36.8,-0.60784,3.2157,-0.29412,30.922
-36.6,-0.45098,2.5882,-0.37255,30.922
-36.4,-0.45098,2.2745,-0.21569,30.843
-36.2,-0.76471,2.902,-0.37255,31
-36,-0.45098,2.2745,-0.37255,31
-35.8,-0.52941,1.9608,-0.21569,30.922
-35.6,-0.76471,3.2157,-0.37255,30.843
-35.4,-0.68627,2.902,-0.60784,31
-35.2,-0.84314,3.2157,-0.45098,31.157
-35,-0.60784,2.902,-0.37255,31
-34.8,-0.29412,2.902,-0.21569,30.765
-34.6,-0.68627,2.2745,-0.45098,30.922
-34.4,-0.84314,1.9608,-0.45098,30.843
-34.2,-0.76471,2.5882,-0.76471,30.843
-34,-0.60784,1.9608,-0.37255,30.843
-33.8,-0.29412,2.5882,-0.21569,30.922
-33.6,-0.52941,2.902,-0.29412,30.843
-33.4,-0.60784,1.6471,-0.52941,30.843
-33.2,-0.37255,2.902,-0.13725,30.922
-33,-0.45098,1.9608,-0.29412,30.922
-32.8,-0.76471,1.9608,-0.37255,31
-32.6,-0.52941,1.9608,-0.29412,30.843
-32.4,-0.29412,2.902,-0.29412,30.922
-32.2,-0.68627,2.2745,-0.45098,30.765
-32,-0.60784,2.5882,-0.37255,31.157
-31.8,-0.60784,2.2745,-0.52941,31
-31.6,-0.84314,2.902,-0.52941,31
-31.4,-0.52941,1.9608,-0.37255,30.294
-31.2,-0.68627,2.5882,-0.45098,31
-31,-0.92157,2.2745,-0.52941,30.922
-30.8,-0.21569,1.9608,-0.29412,31.157
-30.6,-0.68627,1.9608,-0.29412,30.843
-30.4,-0.45098,1.3333,-0.29412,31.078
-30.2,-0.52941,2.2745,-0.21569,31.157
-30,-0.60784,2.2745,-0.21569,31
-29.8,-0.29412,2.2745,-0.29412,30.922
-29.6,-0.29412,2.2745,-0.13725,31
-29.4,-0.68627,2.5882,-0.52941,31
-29.2,-0.37255,3.2157,-0.29412,30.922
-29,-0.52941,2.2745,-0.45098,30.922
-28.8,-0.68627,1.9608,-0.52941,30.922
-28.6,-0.76471,1.6471,-0.52941,31
-28.4,-0.68627,1.9608,-0.45098,30.843
-28.2,-0.76471,1.6471,-0.45098,31.078
-28,-0.84314,2.2745,-0.68627,31
-27.8,-0.84314,2.5882,-0.68627,31
-27.6,-1.0784,2.5882,-0.60784,31.078
-27.4,-1.1569,2.2745,-0.76471,30.922
-27.2,-1,1.6471,-0.68627,31
-27,-1,2.2745,-0.52941,31
-26.8,-0.84314,1.9608,-0.45098,31.078
-26.6,-0.84314,2.2745,-0.52941,31
-26.4,-0.84314,3.2157,-0.45098,31.078
-26.2,-1.0784,2.2745,-0.60784,31.157
-26,-0.92157,1.9608,-0.45098,30.922
-25.8,-0.92157,2.5882,-0.45098,30.843
-25.6,-0.92157,2.5882,-0.60784,30.922
-25.4,-0.84314,2.2745,-0.60784,31
-25.2,-0.84314,2.5882,-0.37255,31.078
-25,-0.60784,3.2157,-0.37255,30.922
-24.8,-0.52941,1.9608,-0.21569,31.157
-24.6,-0.21569,2.2745,-0.37255,31.078
-24.4,-0.29412,2.902,-0.21569,31.078
-24.2,-0.29412,2.5882,-0.058824,30.765
-24,-0.21569,2.2745,0.019608,30.922
-23.8,-0.29412,2.902,0.019608,30.843
-23.6,-0.21569,2.902,-0.058824,31
-23.4,-0.21569,1.9608,-0.058824,31
-23.2,-0.13725,2.2745,0.019608,30.922
-23,0.019608,2.2745,0.17647,31
-22.8,0.2549,1.6471,0.2549,31
-22.6,0.17647,3.2157,0.2549,30.843
-22.4,0.17647,2.2745,0.33333,31.078
-22.2,0.2549,2.2745,0.33333,31
-22,0.64706,2.902,0.56863,30.922
-21.8,0.41176,2.5882,0.33333,33.275
-21.6,-0.058824,2.5882,0.33333,30.922
-21.4,0.33333,2.2745,0.4902,31
-21.2,0.72549,2.5882,0.4902,30.843
-21,0.4902,2.902,0.41176,30.843
-20.8,0.80392,3.2157,0.64706,30.922
-20.6,0.33333,2.2745,0.4902,30.922
-20.4,0.41176,2.2745,0.41176,30.922
-20.2,0.4902,2.902,0.41176,30.765
-20,0.41176,2.5882,0.33333,30.922
-19.8,0.80392,1.9608,0.64706,30.843
-19.6,0.33333,2.2745,0.33333,31.078
-19.4,0.64706,2.2745,0.4902,30.922
-19.2,0.56863,1.9608,0.64706,30.922
-19,0.64706,2.2745,0.56863,30.922
-18.8,0.019608,2.2745,0.41176,31
-18.6,0.41176,1.9608,0.41176,30.922
-18.4,0.4902,2.5882,0.56863,31
-18.2,0.56863,2.2745,0.33333,30.843
-18,0.019608,2.2745,0.2549,31.078
-17.8,0.41176,2.2745,0.33333,30.922
-17.6,0.17647,2.2745,0.17647,30.922
-17.4,0.019608,2.2745,0.2549,31
-17.2,0.2549,2.5882,0.2549,30.922
-17,-0.13725,1.9608,0.019608,31.078
-16.8,-0.21569,1.9608,0.019608,31
-16.6,0.098039,1.6471,0.33333,31
-16.4,0.2549,2.902,0.17647,30.922
-16.2,-0.37255,2.2745,-0.058824,30.843
-16,0.098039,2.2745,0.098039,31
-15.8,0.17647,1.6471,-0.058824,31
-15.6,-0.29412,2.5882,-0.058824,31.078
-15.4,0.2549,2.2745,0.019608,30.922
-15.2,0.17647,2.5882,0.17647,31
-15,0.17647,2.5882,0.098039,30.922
-14.8,-0.13725,2.902,0.2549,30.922
-14.6,-0.29412,2.2745,0.019608,31
-14.4,-0.058824,2.2745,0.17647,30.843
-14.2,0.098039,2.902,-0.058824,31
-14,-0.21569,2.2745,0.098039,30.922
-13.8,-0.21569,2.5882,-0.058824,30.922
-13.6,0.019608,1.9608,0.17647,31
-13.4,-0.13725,2.5882,0.019608,31
-13.2,0.17647,2.5882,0.17647,30.922
-13,-0.058824,2.5882,0.019608,31.157
-12.8,0.019608,2.2745,0.019608,30.922
-12.6,0.17647,2.5882,0.17647,30.922
-12.4,0.098039,1.9608,0.098039,31
-12.2,0.17647,2.902,0.098039,31.078
-12,0.098039,2.2745,0.17647,30.922
-11.8,0.17647,2.5882,0.17647,30.922
-11.6,0.019608,1.9608,0.019608,30.922
-11.4,-0.13725,2.5882,-0.058824,31.078
-11.2,-0.058824,2.2745,-0.13725,31
-11,-0.45098,2.2745,-0.52941,31
-10.8,-0.52941,2.2745,-0.29412,31
-10.6,-0.45098,3.2157,-0.13725,30.843
-10.4,-0.37255,2.5882,-0.29412,31
-10.2,-0.37255,2.2745,-0.37255,31
-10,-0.45098,1.9608,-0.37255,30.922
-9.8,-0.21569,2.2745,0.019608,30.843
-9.6,-0.52941,2.5882,-0.37255,30.922
-9.4,-0.13725,2.902,-0.21569,31
-9.2,-0.37255,2.2745,-0.058824,31.078
-9,-0.37255,2.902,-0.29412,31
-8.8,-0.13725,2.2745,-0.21569,30.843
-8.6,0.019608,3.2157,-0.13725,30.843
-8.4,-0.37255,2.5882,-0.29412,30.922
-8.2,-0.058824,2.2745,-0.13725,30.922
-8,-0.29412,2.902,-0.29412,30.765
-7.8,-0.52941,2.902,-0.21569,31
-7.6,-0.37255,2.5882,-0.45098,30.843
-7.4,-0.60784,2.2745,-0.37255,30.843
-7.2,-0.45098,3.5294,-0.45098,30.922
-7,-0.52941,2.2745,-0.45098,30.922
-6.8,-0.29412,2.5882,-0.21569,30.922
-6.6,-0.68627,1.3333,-0.52941,30.765
-6.4,-0.37255,2.2745,-0.37255,30.843
-6.2,-0.45098,2.5882,-0.37255,30.922
-6,-0.37255,2.5882,-0.45098,31.078
-5.8,-0.52941,1.6471,-0.52941,30.922
-5.6,-0.60784,1.6471,-0.60784,30.843
-5.4,-0.45098,2.5882,-0.37255,30.922
-5.2,-0.13725,3.2157,-0.37255,31
-5,-0.21569,1.9608,-0.21569,31
-4.8,0.098039,2.2745,-0.13725,31.078
-4.6,0.098039,1.6471,-0.058824,31
-4.4,0.17647,2.2745,-0.058824,30.922
-4.2,0.17647,2.2745,0.019608,30.922
-4,0.17647,2.5882,-0.13725,30.843
-3.8,0.17647,1.6471,0.019608,30.843
-3.6,0.2549,1.9608,0.17647,31.078
-3.4,0.4902,2.2745,0.2549,30.922
-3.2,0.56863,1.9608,0.33333,31
-3,0.80392,3.2157,0.33333,31
-2.8,0.80392,2.902,0.41176,30.922
-2.6,0.64706,2.5882,0.41176,30.922
-2.4,0.80392,1.9608,0.33333,30.922
-2.2,1.0392,2.2745,0.41176,30.922
-2,1.0392,2.902,0.4902,31
-1.8,0.88235,2.2745,0.64706,30.843
-1.6,0.88235,2.5882,0.41176,31.078
-1.4,1.0392,2.5882,0.56863,31
-1.2,0.96078,1.9608,0.64706,31.078
-1,0.88235,1.6471,0.64706,30.922
-0.8,0.88235,2.5882,0.4902,31
-0.6,1.1176,2.2745,0.56863,30.922
-0.4,1.2745,2.2745,0.64706,31.078
-0.2,0.96078,3.5294,0.4902,30.765
0,1.0392,2.5882,0.4902,30.922
0.2,0.88235,2.2745,0.64706,31.078
0.4,1.0392,2.5882,0.64706,30.922
0.6,1.0392,1.9608,0.4902,30.843
0.8,1.1176,1.9608,0.56863,31
1,1.1961,2.902,0.64706,30.843
1.2,0.96078,3.5294,0.56863,31.078
1.4,1.1176,2.2745,0.4902,30.922
1.6,0.88235,2.2745,0.56863,31
1.8,0.80392,2.2745,0.72549,30.843
2,0.64706,2.2745,0.41176,31
2.2,0.41176,2.5882,0.17647,30.922
2.4,0.17647,2.902,0.098039,30.922
2.6,0.41176,2.902,0.098039,31
2.8,0.41176,2.902,0.098039,31.078
3,0.098039,2.2745,-0.13725,30.922
3.2,0.17647,2.5882,0.17647,31
3.4,-0.058824,2.902,-0.058824,31.078
3.6,0.098039,2.902,0.098039,30.922
3.8,0.2549,2.5882,0.2549,30.843
4,0.33333,2.5882,0.17647,30.137
4.2,0.33333,2.2745,0.17647,30.922
4.4,0.41176,3.2157,0.17647,30.922
4.6,0.17647,1.6471,0.098039,30.843
4.8,0.33333,2.2745,0.33333,30.843
5,0.2549,2.2745,0.17647,31
5.2,0.2549,2.2745,0.2549,30.843
5.4,0.33333,2.5882,0.17647,31.078
5.6,0.17647,2.902,0.098039,30.843
5.8,0.17647,2.5882,0.17647,30.843
6,0.4902,2.5882,0.17647,31
6.2,0.098039,1.9608,0.019608,30.922
6.4,0.41176,2.5882,0.2549,30.922
6.6,-0.058824,1.9608,-0.058824,30.922
6.8,0.41176,2.5882,0.33333,30.765
7,0.2549,1.9608,0.098039,30.922
7.2,0.17647,2.2745,0.2549,30.922
7.4,0.2549,2.2745,0.17647,30.922
7.6,0.019608,2.5882,0.019608,31
7.8,-0.058824,2.2745,-0.058824,30.922
8,-0.37255,1.9608,-0.29412,31
8.2,-0.21569,2.2745,-0.13725,30.843
8.4,-0.52941,2.2745,-0.45098,31.078
8.6,-1,2.2745,-0.52941,30.922
8.8,-0.76471,2.5882,-0.52941,30.843
9,-0.84314,2.2745,-0.68627,30.922
9.2,-0.76471,2.2745,-0.68627,31.078
9.4,-0.52941,2.2745,-0.21569,30.843
9.6,-0.76471,2.902,-0.60784,30.922
9.8,-0.52941,2.2745,-0.45098,30.922
10,-0.52941,1.9608,-0.37255,31
10.2,-0.60784,2.5882,-0.37255,31
10.4,-0.84314,2.2745,-0.45098,31
10.6,-0.68627,2.5882,-0.29412,31
10.8,-0.29412,2.5882,-0.29412,30.843
11,-0.45098,1.9608,-0.21569,31
11.2,-0.60784,1.9608,-0.45098,31
11.4,-0.92157,1.9608,-0.68627,31
11.6,-1,3.2157,-0.68627,30.922
11.8,-1.0784,2.2745,-0.68627,31
12,-0.84314,2.2745,-0.37255,31.078
12.2,-1.0784,1.6471,-0.68627,31
12.4,-1,2.5882,-0.52941,30.922
12.6,-1,2.5882,-0.60784,31
12.8,-1,1.9608,-0.68627,31
13,-1.0784,1.9608,-0.45098,31
13.2,-1.0784,1.9608,-0.60784,30.922
13.4,-1.0784,2.5882,-0.60784,31.078
13.6,-0.92157,2.2745,-0.45098,30.843
13.8,-0.84314,2.5882,-0.37255,30.922
14,-0.52941,1.9608,-0.21569,30.922
14.2,-0.45098,2.5882,-0.13725,31
14.4,-0.45098,2.2745,-0.058824,31
14.6,-0.13725,2.902,0.019608,30.922
14.8,-0.37255,2.5882,0.019608,31
15,-0.058824,2.5882,-0.058824,31
15.2,-0.058824,1.9608,-0.058824,31.078
15.4,-0.13725,1.9608,0.098039,30.843
15.6,-0.058824,2.902,0.098039,31
15.8,0.019608,2.5882,0.17647,30.843
16,0.098039,2.5882,0.098039,30.922
16.2,0.2549,2.2745,0.2549,31
16.4,0.2549,2.5882,0.41176,31.078
16.6,0.41176,2.5882,0.33333,31.078
16.8,0.2549,2.5882,0.2549,31.392
17,0.17647,2.5882,0.17647,30.765
17.2,0.2549,2.5882,0.2549,30.922
17.4,0.17647,2.2745,0.41176,30.922
17.6,0.56863,2.5882,0.56863,30.843
17.8,0.64706,2.2745,0.56863,30.843
18,0.56863,2.2745,0.41176,30.843
18.2,0.72549,2.5882,0.64706,30.922
18.4,0.64706,2.2745,0.41176,30.686
18.6,0.88235,2.2745,0.56863,30.922
18.8,0.88235,1.9608,0.64706,30.922
19,0.80392,2.902,0.56863,31
19.2,0.4902,2.902,0.56863,30.843
19.4,0.41176,2.5882,0.33333,30.843
19.6,0.33333,2.5882,0.56863,30.922
19.8,0.2549,2.2745,0.41176,30.922
20,0.2549,1.9608,0.33333,30.843
20.2,0.33333,1.6471,0.33333,31.078
20.4,0.33333,1.9608,0.2549,30.843
20.6,0.33333,2.2745,0.41176,31
20.8,0.2549,1.6471,0.2549,30.843
21,0.2549,2.2745,0.41176,30.922
21.2,0.4902,2.2745,0.56863,31
21.4,0.4902,3.2157,0.41176,30.922
21.6,0.33333,2.5882,0.33333,30.765
21.8,0.2549,2.2745,0.17647,31
22,0.4902,2.2745,0.2549,31
22.2,0.2549,2.2745,0.17647,30.843
22.4,0.33333,2.2745,0.2549,31
22.6,0.33333,2.5882,0.2549,31
22.8,0.098039,2.2745,0.17647,31.078
23,0.41176,2.5882,0.2549,31
23.2,0.098039,1.9608,0.33333,31
23.4,-0.058824,2.5882,0.098039,30.922
23.6,-0.058824,3.2157,0.019608,31.078
23.8,0.019608,2.5882,0.098039,30.922
24,0.17647,1.9608,0.2549,31.078
24.2,0.098039,2.2745,0.2549,31
24.4,0.098039,2.5882,0.33333,31
24.6,0.33333,2.2745,0.2549,31.078
24.8,-0.058824,2.902,0.098039,31.078
25,0.17647,1.9608,0.098039,30.843
25.2,-0.13725,2.902,0.098039,31.078
25.4,-0.058824,1.9608,-0.13725,31
25.6,-0.21569,2.2745,0.019608,30.843
25.8,0.17647,1.9608,0.098039,31
26,-0.21569,2.2745,-0.13725,31.078
26.2,0.2549,2.902,0.2549,31.078
26.4,0.17647,1.9608,0.33333,31.078
26.6,-0.29412,3.2157,-0.058824,30.922
26.8,0.33333,2.2745,0.2549,30.765
27,-0.058824,1.9608,0.098039,30.922
27.2,-0.21569,1.9608,-0.058824,31.078
27.4,-0.21569,2.2745,0.019608,30.922
27.6,-0.29412,2.902,-0.29412,31
27.8,0.098039,2.5882,0.098039,31
28,-0.37255,2.5882,-0.13725,31.078
28.2,-0.13725,1.9608,-0.13725,30.843
28.4,0.019608,2.5882,0.2549,30.922
28.6,-0.29412,2.2745,0.019608,31
28.8,-0.21569,2.2745,-0.058824,30.843
29,0.019608,2.2745,-0.058824,30.922
29.2,-0.058824,2.2745,-0.058824,30.922
29.4,0.098039,2.2745,0.2549,31
29.6,-0.058824,2.902,-0.058824,30.843
29.8,-0.21569,3.2157,0.019608,32.49
30,0.098039,1.6471,0.2549,31
30.2,0.2549,2.5882,0.17647,30.922
30.4,-0.21569,2.2745,-0.21569,30.765
30.6,0.098039,2.902,0.17647,30.922
30.8,-0.13725,2.5882,0.019608,30.922
31,0.17647,2.2745,0.2549,31
31.2,0.33333,2.2745,0.33333,30.922
31.4,0.17647,2.902,0.098039,30.922
31.6,-0.058824,2.2745,-0.058824,30.843
31.8,0.17647,2.5882,0.019608,30.922
32,-0.37255,1.9608,-0.29412,30.922
32.2,0.019608,2.5882,-0.058824,30.922
32.4,-0.21569,1.9608,-0.13725,30.843
32.6,-0.60784,1.9608,-0.37255,30.843
32.8,-0.52941,2.5882,-0.45098,31.078
33,-0.45098,2.2745,-0.37255,30.843
33.2,-0.68627,3.2157,-0.37255,30.843
33.4,-0.29412,2.5882,-0.21569,30.922
33.6,-0.29412,1.9608,-0.13725,30.922
33.8,-0.29412,2.5882,-0.29412,30.922
34,-0.29412,1.9608,-0.37255,30.843
34.2,-0.21569,2.2745,-0.37255,30.922
34.4,-0.45098,1.9608,-0.52941,31
34.6,-0.45098,2.2745,-0.37255,30.843
34.8,-0.45098,2.5882,-0.45098,30.765
35,-0.29412,2.902,-0.29412,31
35.2,-0.37255,1.9608,-0.37255,30.843
35.4,-0.29412,2.2745,-0.37255,30.922
35.6,-0.21569,2.2745,-0.45098,31
35.8,-0.52941,2.5882,-0.52941,30.922
36,-0.13725,2.2745,-0.13725,30.843
36.2,0.098039,1.9608,-0.058824,30.922
36.4,0.17647,1.9608,-0.058824,30.843
36.6,0.17647,2.5882,0.019608,30.843
36.8,0.33333,1.6471,0.17647,30.843
37,0.41176,2.5882,-0.058824,31
37.2,0.4902,2.2745,0.33333,30.922
37.4,0.88235,1.9608,0.33333,30.922
37.6,0.72549,2.2745,0.41176,31
37.8,0.80392,1.6471,0.56863,30.922
38,0.88235,2.902,0.41176,30.922
38.2,0.88235,1.6471,0.4902,30.843
38.4,0.72549,2.902,0.41176,30.922
38.6,1.0392,2.2745,0.64706,30.922
38.8,1.0392,2.902,0.33333,30.922
39,1.1961,2.902,0.72549,31.078
39.2,1.2745,2.5882,0.64706,30.922
39.4,0.96078,2.2745,0.41176,31
39.6,1.1961,2.902,0.56863,31.078
39.8,0.96078,1.9608,0.56863,31
40,0.96078,2.2745,0.56863,30.922
40.2,0.88235,2.2745,0.56863,30.922
40.4,0.4902,2.2745,0.2549,30.922
40.6,0.41176,2.5882,0.098039,30.922
40.8,0.41176,2.2745,0.2549,31
41,0.41176,2.5882,0.17647,30.922
41.2,-0.058824,2.902,-0.13725,31.078
41.4,-0.058824,2.2745,-0.058824,30.922
41.6,0.17647,2.2745,0.019608,31
41.8,0.098039,3.2157,0.019608,31
42,0.2549,2.2745,0.17647,31.078
42.2,0.17647,2.5882,0.17647,30.922
42.4,0.2549,2.902,0.098039,31.157
42.6,0.2549,2.5882,0.17647,30.451
42.8,-0.058824,1.9608,0.019608,30.922
43,-0.13725,2.2745,-0.058824,30.843
43.2,0.098039,2.5882,0.019608,30.843
43.4,-0.058824,2.902,-0.13725,30.922
43.6,0.2549,2.2745,0.17647,30.843
43.8,0.41176,1.9608,0.2549,30.843
44,-0.058824,2.5882,-0.058824,31
44.2,-0.058824,2.2745,-0.29412,31
44.4,-0.21569,2.5882,-0.37255,30.922
44.6,-0.29412,2.5882,-0.29412,30.922
44.8,-0.68627,1.3333,-0.37255,31
45,-0.29412,2.5882,-0.21569,30.922
45.2,-0.37255,2.2745,-0.29412,31
45.4,-0.45098,2.2745,-0.13725,30.843
45.6,-0.52941,1.9608,-0.21569,31
45.8,-0.68627,2.2745,-0.37255,31.078
46,-0.60784,2.2745,-0.45098,31.157
46.2,-1,2.2745,-0.52941,30.765
46.4,-0.84314,2.2745,-0.45098,30.922
46.6,-0.68627,1.6471,-0.45098,30.843
46.8,-0.84314,1.9608,-0.37255,30.843
47,-1,1.9608,-0.52941,30.922
47.2,-1.0784,2.5882,-0.68627,31.078
47.4,-1,1.9608,-0.45098,31.078
47.6,-0.84314,3.2157,-0.52941,30.922
47.8,-0.68627,2.5882,-0.37255,31.078
48,-0.52941,1.9608,-0.21569,31.078
48.2,-0.60784,1.9608,-0.29412,30.922
48.4,-0.29412,1.9608,-0.29412,31
48.6,-0.45098,1.9608,-0.21569,30.843
48.8,-0.21569,3.2157,-0.058824,30.843
49,-0.45098,1.6471,-0.13725,31
49.2,-0.29412,1.9608,-0.21569,30.843
49.4,-0.13725,1.9608,-0.058824,31
49.6,-0.21569,1.9608,0.019608,31
49.8,-0.29412,2.2745,-0.13725,31.157
50,-0.29412,2.902,-0.13725,31
50.2,-0.13725,2.902,-0.058824,30.843
50.4,-0.21569,1.9608,-0.058824,30.922
50.6,-0.21569,1.9608,0.019608,30.922
50.8,-0.13725,2.902,-0.058824,30.922
51,-0.21569,1.9608,-0.058824,30.922
51.2,-0.21569,1.6471,-0.13725,30.922
51.4,-0.21569,1.3333,0.019608,31
51.6,-0.13725,1.9608,0.019608,30.922
51.8,-0.21569,1.3333,-0.058824,30.922
52,-0.13725,0.078431,0.019608,31.078
52.2,-0.21569,-0.23529,0.019608,31.157
52.4,-0.13725,-0.23529,0.098039,31
52.6,-0.21569,-0.23529,0.098039,31.157
52.8,-0.21569,-0.86275,-0.13725,31.078
53,-0.29412,0.078431,0.019608,31.157
53.2,-0.21569,0.078431,0.019608,31.078
53.4,-0.29412,-0.23529,-0.058824,30.922
53.6,-0.29412,0.078431,-0.058824,31.078
53.8,-0.21569,-0.54902,0.098039,31
54,-0.29412,0.078431,-0.13725,31
54.2,-0.21569,-0.54902,0.098039,31.157
54.4,-0.29412,-0.54902,0.019608,31.157
54.6,-0.13725,0.70588,-0.13725,31
54.8,-0.29412,0.078431,-0.058824,31
55,-0.21569,-0.54902,0.098039,31
55.2,-0.21569,-0.23529,-0.21569,31.078
55.4,-0.13725,0.078431,-0.13725,31
55.6,-0.21569,0.39216,-0.13725,31.157
55.8,-0.21569,1.6471,-0.13725,31
56,-0.29412,1.6471,-0.13725,31.157
56.2,0.17647,1.0196,0.17647,32.804
56.4,-0.058824,0.39216,0.019608,31.078
56.6,-0.37255,1.3333,-0.13725,30.843
56.8,-0.29412,0.39216,-0.21569,31
57,-0.52941,1.0196,-0.13725,31
57.2,-0.45098,1.3333,-0.13725,31
57.4,-0.29412,1.3333,-0.058824,30.765
57.6,-0.21569,1.3333,-0.058824,30.922
57.8,-0.21569,1.0196,-0.21569,30.922
58,-0.45098,1.0196,-0.29412,31
58.2,-0.37255,1.6471,-0.21569,30.922
58.4,-0.29412,1.3333,-0.21569,31.078
58.6,-0.29412,1.3333,-0.29412,30.922
58.8,-0.37255,0.70588,-0.21569,31.157
59,-0.29412,0.70588,-0.13725,31
59.2,-0.37255,0.39216,-0.058824,31
59.4,-0.37255,1.0196,-0.13725,31.078
59.6,-0.29412,1.0196,-0.13725,31.078
59.8,-0.52941,0.39216,-0.13725,30.922
60,-0.52941,1.6471,-0.29412,31
60.2,-0.29412,0.39216,-0.058824,31
60.4,-0.45098,0.70588,-0.13725,31.078
60.6,-0.52941,0.70588,-0.29412,31.078
60.8,-0.45098,0.39216,-0.058824,31.157
