models/2020/battery/data/Waveform_2019-11-22_232730_576_-1.csv

Model,RTH1004
SerialNumber,103234
Firmware Version,'1.60.3.3'

Waveform Time Stamp,2019-11-22 23:27:30.576,2019-11-22 23:27:30.576,2019-11-22 23:27:30.576,2019-11-22 23:27:30.576
Waveform Type,ANALOG,,,
Acquisition Mode,SAMPLE,,,
Horizontal Unit,s,,,
Horizontal Scale,20,,,
Horizontal Position,0,,,
Reference Point,10 %,,,
Sample Interval,0.08,,,
Record Length,2500,,,
Probe Setting,'10:1','10 mV/A','10:1','10:1'
Vertical Unit,V,A,V,V
Vertical Scale,2,20,2,2
Vertical Position,-3,-3,-3,-3
Vertical Offset,0,0,0,0
History Index,-1,-1,-1,-1
History Time Stamp,-219.760000000000,-219.760000000000,-219.760000000000,-219.760000000000
,,,,
TIME,CH1,CH2,CH3,CH4
-20,11.773,103.92,11.647,11.71
-19.92,11.741,105.49,11.616,11.678
-19.84,11.773,102.98,11.553,11.647
-19.76,11.741,106.12,11.553,11.678
-19.68,11.804,104.55,11.522,11.741
-19.6,11.804,105.49,11.71,11.647
-19.52,11.741,104.55,11.584,11.678
-19.44,11.741,105.49,11.647,11.647
-19.36,11.804,104.55,11.584,11.71
-19.28,11.835,105.18,11.584,11.773
-19.2,11.741,104.55,11.616,11.678
-19.12,11.71,107.06,11.553,11.71
-19.04,11.773,105.18,11.459,11.616
-18.96,11.71,105.18,11.616,11.647
-18.88,11.773,106.75,11.553,11.71
-18.8,11.773,104.55,11.584,11.71
-18.72,11.835,106.43,11.553,11.647
-18.64,11.773,105.49,11.553,11.616
-18.56,11.773,107.06,11.553,11.616
-18.48,11.71,106.43,11.522,11.616
-18.4,11.773,106.75,11.553,11.647
-18.32,11.741,105.49,11.584,11.616
-18.24,11.71,107.06,11.647,11.741
-18.16,11.804,105.49,11.522,11.678
-18.08,11.71,106.75,11.584,11.616
-18,11.804,107.06,11.584,11.678
-17.92,11.773,106.75,11.616,11.678
-17.84,11.804,107.06,11.616,11.71
-17.76,11.773,107.06,11.522,11.553
-17.68,11.71,109.57,11.616,11.616
-17.6,11.71,107.69,11.616,11.647
-17.52,11.741,107.37,11.647,11.71
-17.44,11.804,107.69,11.584,11.678
-17.36,11.773,108.63,11.616,11.647
-17.28,11.804,106.75,11.616,11.616
-17.2,11.835,108.31,11.616,11.71
-17.12,11.773,108,11.584,11.741
-17.04,11.741,109.25,11.647,11.678
-16.96,11.773,109.57,11.553,11.71
-16.88,11.804,109.25,11.616,11.647
-16.8,11.71,109.25,11.553,11.616
-16.72,11.773,111.14,11.616,11.71
-16.64,11.678,109.57,11.522,11.647
-16.56,11.773,111.14,11.647,11.678
-16.48,12.243,109.57,12.243,12.337
-16.4,11.835,109.88,11.584,11.49
-16.32,11.647,111.14,11.396,11.553
-16.24,11.678,111.45,11.427,11.522
-16.16,11.647,111.45,11.49,11.647
-16.08,11.647,108.94,11.49,11.522
-16,11.71,109.57,11.584,11.553
-15.92,11.741,109.57,11.459,11.584
-15.84,11.71,109.57,11.49,11.49
-15.76,11.71,109.88,11.522,11.553
-15.68,11.71,109.88,11.553,11.553
-15.6,11.71,107.37,11.553,11.647
-15.52,11.647,109.25,11.396,11.553
-15.44,11.616,108.94,11.49,11.522
-15.36,11.71,109.25,11.396,11.584
-15.28,11.678,109.57,11.522,11.553
-15.2,11.71,108.31,11.553,11.522
-15.12,11.71,109.57,11.522,11.584
-15.04,11.678,109.57,11.427,11.522
-14.96,11.647,109.57,11.49,11.553
-14.88,11.71,109.88,11.553,11.616
-14.8,11.647,109.88,11.522,11.49
-14.72,11.71,107.37,11.459,11.522
-14.64,11.647,108.63,11.427,11.584
-14.56,11.616,107.69,11.459,11.553
-14.48,11.678,108.63,11.459,11.616
-14.4,11.71,108.31,11.522,11.616
-14.32,11.71,107.69,11.522,11.616
-14.24,11.678,108.94,11.522,11.553
-14.16,11.678,108,11.49,11.616
-14.08,11.71,110.2,11.459,11.553
-14,11.71,108.94,11.522,11.616
-13.92,11.678,107.37,11.522,11.584
-13.84,11.741,106.12,11.49,11.616
-13.76,11.71,108,11.49,11.584
-13.68,11.678,107.06,11.49,11.584
-13.6,11.647,107.06,11.49,11.584
-13.52,11.71,108.94,11.522,11.647
-13.44,11.71,105.8,11.522,11.584
-13.36,11.678,109.25,11.49,11.553
-13.28,11.678,107.06,11.553,11.584
-13.2,11.678,107.69,11.522,11.553
-13.12,11.741,106.43,11.49,11.553
-13.04,11.616,107.06,11.49,11.584
-12.96,11.773,106.12,11.522,11.553
-12.88,11.678,105.18,11.522,11.584
-12.8,11.71,107.69,11.553,11.553
-12.72,11.71,105.49,11.459,11.616
-12.64,11.741,107.06,11.459,11.584
-12.56,11.678,106.12,11.522,11.522
-12.48,11.678,106.12,11.522,11.584
-12.4,11.741,106.75,11.522,11.616
-12.32,11.678,107.37,11.49,11.584
-12.24,11.71,106.12,11.49,11.584
-12.16,11.71,105.18,11.522,11.616
-12.08,11.71,105.8,11.522,11.584
-12,11.741,105.49,11.553,11.584
-11.92,11.678,106.75,11.522,11.553
-11.84,11.71,107.06,11.459,11.49
-11.76,11.71,104.24,11.49,11.584
-11.68,11.71,104.55,11.49,11.553
-11.6,11.71,104.24,11.553,11.616
-11.52,11.678,105.49,11.459,11.522
-11.44,11.741,104.86,11.427,11.647
-11.36,11.71,104.55,11.459,11.553
-11.28,11.773,104.86,11.522,11.584
-11.2,11.71,104.55,11.522,11.553
-11.12,11.678,104.86,11.427,11.522
-11.04,11.71,103.92,11.584,11.647
-10.96,11.71,103.61,11.427,11.49
-10.88,11.678,104.24,11.522,11.553
-10.8,11.773,103.29,11.584,11.678
-10.72,11.553,103.61,11.365,11.427
-10.64,11.678,102.35,11.522,11.678
-10.56,11.867,102.98,11.741,11.773
-10.48,11.867,102.67,11.616,11.71
-10.4,11.71,101.1,11.616,11.71
-10.32,10.925,103.61,10.863,10.612
-10.24,11.773,101.73,11.616,11.678
-10.16,11.835,102.67,11.616,11.647
-10.08,11.71,102.04,11.584,11.647
-10,11.773,102.67,11.584,11.741
-9.92,11.741,102.04,11.522,11.584
-9.84,11.773,103.61,11.584,11.678
-9.76,11.71,103.29,11.553,11.678
-9.68,11.773,101.1,11.616,11.773
-9.6,11.773,102.35,11.553,11.678
-9.52,11.741,102.04,11.616,11.71
-9.44,11.804,102.04,11.584,11.71
-9.36,11.835,104.55,11.584,11.647
-9.28,11.71,102.67,11.584,11.678
-9.2,11.741,103.29,11.616,11.616
-9.12,11.773,102.98,11.553,11.647
-9.04,11.773,105.8,11.584,11.71
-8.96,11.741,103.29,11.584,11.616
-8.88,11.741,102.67,11.584,11.647
-8.8,11.835,104.55,11.584,11.647
-8.72,11.741,102.04,11.584,11.71
-8.64,11.773,103.92,11.584,11.678
-8.56,11.835,104.24,11.522,11.71
-8.48,11.741,103.61,11.647,11.647
-8.4,11.773,104.55,11.553,11.616
-8.32,11.804,105.49,11.584,11.647
-8.24,11.773,103.92,11.616,11.647
-8.16,11.741,104.24,11.553,11.678
-8.08,11.773,104.86,11.584,11.647
-8,11.741,103.92,11.616,11.773
-7.92,11.773,103.92,11.678,11.678
-7.84,11.835,105.18,11.584,11.678
-7.76,11.804,104.24,11.584,11.741
-7.68,11.804,104.86,11.616,11.741
-7.6,11.741,105.49,11.553,11.647
-7.52,11.71,104.24,11.553,11.647
-7.44,11.804,104.86,11.584,11.741
-7.36,11.741,105.18,11.616,11.71
-7.28,11.741,105.18,11.584,11.678
-7.2,11.773,102.98,11.584,11.71
-7.12,11.804,104.86,11.584,11.647
-7.04,11.804,104.24,11.584,11.678
-6.96,11.804,103.61,11.616,11.678
-6.88,11.71,106.75,11.553,11.678
-6.8,11.804,104.86,11.553,11.773
-6.72,11.804,105.8,11.584,11.741
-6.64,11.71,105.8,11.616,11.678
-6.56,11.804,106.12,11.647,11.678
-6.48,11.773,106.43,11.584,11.647
-6.4,11.741,104.24,11.522,11.647
-6.32,11.804,104.86,11.616,11.71
-6.24,11.773,106.43,11.584,11.647
-6.16,11.773,107.06,11.616,11.678
-6.08,11.835,106.75,11.616,11.678
-6,11.741,106.12,11.584,11.678
-5.92,11.773,106.43,11.553,11.71
-5.84,11.773,107.37,11.553,11.647
-5.76,11.773,106.12,11.584,11.647
-5.68,11.71,107.06,11.584,11.678
-5.6,11.71,107.06,11.584,11.616
-5.52,11.741,106.12,11.616,11.647
-5.44,11.741,108.31,11.49,11.647
-5.36,11.741,108,11.49,11.616
-5.28,11.71,106.12,11.522,11.616
-5.2,11.741,107.37,11.616,11.647
-5.12,11.835,107.06,11.553,11.678
-5.04,11.741,108.31,11.584,11.584
-4.96,11.741,107.69,11.553,11.584
-4.88,11.773,106.12,11.553,11.678
-4.8,11.773,108.94,11.616,11.616
-4.72,11.835,109.88,11.584,11.71
-4.64,11.71,107.37,11.553,11.584
-4.56,11.773,108.94,11.553,11.678
-4.48,11.804,108,11.522,11.647
-4.4,11.773,109.25,11.584,11.71
-4.32,11.741,109.57,11.553,11.71
-4.24,11.71,110.51,11.584,11.647
-4.16,11.678,110.82,11.584,11.71
-4.08,11.71,110.2,11.584,11.71
-4,11.773,110.2,11.522,11.71
-3.92,11.898,111.14,11.71,11.804
-3.84,13.153,110.51,13.184,13.561
-3.76,11.71,109.88,11.459,11.522
-3.68,11.741,110.2,11.49,11.553
-3.6,11.71,110.2,11.396,11.553
-3.52,11.616,110.82,11.427,11.49
-3.44,11.647,110.2,11.459,11.553
-3.36,11.678,109.57,11.49,11.553
-3.28,11.71,111.76,11.49,11.647
-3.2,11.647,109.88,11.49,11.553
-3.12,11.71,109.25,11.49,11.584
-3.04,11.616,110.51,11.459,11.522
-2.96,11.678,110.2,11.459,11.553
-2.88,11.616,109.25,11.49,11.553
-2.8,11.678,109.88,11.396,11.49
-2.72,11.71,108.94,11.365,11.584
-2.64,11.71,108.31,11.49,11.616
-2.56,11.71,110.2,11.522,11.553
-2.48,11.647,109.57,11.427,11.553
-2.4,11.678,108,11.459,11.553
-2.32,11.678,109.57,11.522,11.616
-2.24,11.678,108.94,11.49,11.584
-2.16,11.647,109.57,11.522,11.584
-2.08,11.678,109.88,11.49,11.553
-2,11.678,109.88,11.584,11.616
-1.92,11.678,107.37,11.459,11.584
-1.84,11.647,109.88,11.396,11.553
-1.76,11.553,109.25,11.522,11.553
-1.68,11.647,107.69,11.459,11.616
-1.6,11.647,107.69,11.459,11.522
-1.52,11.678,108.31,11.522,11.553
-1.44,11.71,108,11.49,11.584
-1.36,11.678,108.31,11.459,11.522
-1.28,11.678,108,11.522,11.522
-1.2,11.616,108,11.459,11.522
-1.12,11.71,107.37,11.522,11.522
-1.04,11.71,106.75,11.522,11.553
-0.96,11.647,108.31,11.49,11.553
-0.88,11.647,107.37,11.459,11.522
-0.8,11.678,107.06,11.459,11.584
-0.72,11.71,108.63,11.49,11.49
-0.64,11.678,108,11.49,11.584
-0.56,11.71,107.69,11.522,11.616
-0.48,11.678,105.8,11.522,11.647
-0.4,11.678,107.69,11.49,11.616
-0.32,11.678,108.63,11.459,11.584
-0.24,11.647,106.75,11.49,11.584
-0.16,11.71,106.12,11.49,11.553
-0.08,11.773,107.69,11.49,11.584
0,11.678,107.06,11.49,11.522
0.08,11.647,107.37,11.396,11.584
0.16,11.647,105.49,11.553,11.584
0.24,11.71,106.43,11.522,11.584
0.32,11.71,108.31,11.522,11.553
0.4,11.678,106.43,11.459,11.584
0.48,11.71,105.49,11.49,11.522
0.56,11.71,107.06,11.427,11.522
0.64,11.678,105.18,11.522,11.616
0.72,11.71,106.12,11.49,11.553
0.8,11.616,106.75,11.459,11.584
0.88,11.678,105.49,11.522,11.584
0.96,11.647,104.86,11.396,11.553
1.04,11.678,106.43,11.49,11.522
1.12,11.71,105.49,11.522,11.553
1.2,11.678,104.55,11.49,11.647
1.28,11.678,104.24,11.522,11.522
1.36,11.741,103.61,11.49,11.616
1.44,11.584,103.92,11.396,11.427
1.52,11.678,104.55,11.49,11.584
1.6,11.71,103.61,11.49,11.522
1.68,11.522,103.92,11.396,11.459
1.76,11.741,103.92,11.584,11.741
1.84,11.961,102.67,11.49,11.365
1.92,11.804,101.73,11.584,11.647
2,11.898,102.67,11.553,11.741
2.08,11.302,102.67,11.051,10.957
2.16,11.176,102.35,10.957,11.051
2.24,11.773,102.35,11.584,11.647
2.32,11.773,102.98,11.553,11.647
2.4,11.741,102.98,11.647,11.773
2.48,11.804,104.86,11.553,11.678
2.56,11.773,104.24,11.616,11.647
2.64,11.773,106.43,11.553,11.71
2.72,11.741,105.49,11.616,11.647
2.8,11.71,105.49,11.522,11.584
2.88,11.773,105.8,11.553,11.678
2.96,11.741,104.55,11.553,11.616
3.04,11.741,105.8,11.553,11.678
3.12,11.741,106.43,11.553,11.647
3.2,11.773,106.43,11.553,11.616
3.28,11.741,103.92,11.553,11.647
3.36,11.773,104.24,11.553,11.678
3.44,11.773,104.24,11.616,11.71
3.52,11.773,105.18,11.584,11.647
3.6,11.741,105.49,11.584,11.616
3.68,11.741,103.92,11.522,11.647
3.76,11.71,104.55,11.522,11.616
3.84,11.773,105.8,11.584,11.678
3.92,11.804,105.49,11.522,11.678
4,11.835,104.24,11.616,11.678
4.08,11.773,104.55,11.584,11.553
4.16,11.741,104.24,11.553,11.616
4.24,11.835,105.18,11.553,11.71
4.32,11.71,104.55,11.553,11.647
4.4,11.741,103.92,11.616,11.71
4.48,11.773,104.86,11.616,11.678
4.56,11.678,104.24,11.553,11.741
4.64,11.773,104.86,11.584,11.71
4.72,11.773,106.75,11.553,11.647
4.8,11.804,103.92,11.616,11.71
4.88,11.71,104.86,11.522,11.71
4.96,11.741,105.18,11.522,11.647
5.04,11.741,106.12,11.616,11.678
5.12,11.773,105.8,11.553,11.71
5.2,11.835,103.92,11.553,11.616
5.28,11.773,104.86,11.584,11.678
5.36,11.741,108.94,11.584,11.678
5.44,11.773,105.8,11.553,11.647
5.52,11.741,106.43,11.553,11.678
5.6,11.773,105.49,11.553,11.616
5.68,11.773,105.18,11.522,11.71
5.76,11.773,105.8,11.553,11.584
5.84,11.741,106.43,11.553,11.616
5.92,11.773,106.12,11.522,11.647
6,11.773,105.8,11.584,11.678
6.08,11.773,107.37,11.616,11.71
6.16,11.804,107.37,11.553,11.616
6.24,11.741,105.8,11.522,11.647
6.32,11.804,106.12,11.584,11.647
6.4,11.804,106.75,11.553,11.647
6.48,11.835,107.37,11.522,11.741
6.56,11.741,106.75,11.427,11.584
6.64,11.741,106.75,11.522,11.678
6.72,11.741,106.43,11.49,11.647
6.8,11.71,108.94,11.553,11.71
6.88,11.804,106.43,11.584,11.647
6.96,11.773,108,11.553,11.647
7.04,11.741,108,11.553,11.678
7.12,11.804,107.06,11.616,11.71
7.2,11.773,108,11.553,11.553
7.28,11.773,107.69,11.647,11.71
7.36,11.773,108.94,11.522,11.647
7.44,11.741,108,11.522,11.647
7.52,11.804,107.06,11.584,11.71
7.6,11.741,108.94,11.584,11.647
7.68,11.741,107.37,11.522,11.71
7.76,11.773,108.94,11.616,11.678
7.84,11.804,110.2,11.553,11.678
7.92,11.835,108.31,11.584,11.678
8,11.741,110.2,11.522,11.616
8.08,11.741,109.25,11.522,11.678
8.16,11.804,111.14,11.553,11.678
8.24,11.867,112.71,11.616,11.616
8.32,11.741,109.57,11.616,11.741
8.4,11.678,112.71,11.365,11.584
8.48,11.898,111.76,11.71,11.804
8.56,11.678,111.14,11.49,11.616
8.64,11.678,111.76,11.49,11.522
8.72,11.678,110.82,11.49,11.553
8.8,11.647,110.51,11.522,11.584
8.88,11.678,110.82,11.459,11.522
8.96,11.647,113.02,11.459,11.459
9.04,11.678,109.88,11.49,11.522
9.12,11.647,109.25,11.396,11.459
9.2,11.71,109.25,11.396,11.553
9.28,11.71,111.76,11.49,11.616
9.36,11.647,110.2,11.427,11.522
9.44,11.678,109.88,11.459,11.584
9.52,11.71,109.57,11.553,11.584
9.6,11.678,110.2,11.427,11.584
9.68,11.678,109.88,11.396,11.522
9.76,11.71,108,11.553,11.522
9.84,11.678,109.25,11.459,11.49
9.92,11.71,109.25,11.396,11.553
10,11.616,108.63,11.459,11.459
10.08,11.678,110.2,11.427,11.49
10.16,11.647,110.2,11.427,11.553
10.24,11.678,109.25,11.459,11.553
10.32,11.71,109.25,11.553,11.616
10.4,11.678,108.94,11.459,11.522
10.48,11.71,110.2,11.49,11.49
10.56,11.71,109.25,11.396,11.616
10.64,11.71,107.69,11.49,11.616
10.72,11.616,109.25,11.459,11.553
10.8,11.678,109.25,11.459,11.553
10.88,11.678,108.31,11.459,11.553
10.96,11.71,109.57,11.49,11.584
11.04,11.647,107.69,11.427,11.522
11.12,11.678,109.57,11.396,11.584
11.2,11.616,108.31,11.459,11.553
11.28,11.741,108,11.459,11.647
11.36,11.71,107.37,11.365,11.49
11.44,11.678,108.63,11.427,11.49
11.52,11.647,106.75,11.459,11.553
11.6,11.616,108.63,11.459,11.616
11.68,11.647,108.63,11.522,11.616
11.76,11.71,106.75,11.459,11.584
11.84,11.647,108.63,11.427,11.522
11.92,11.678,106.43,11.427,11.553
12,11.678,108,11.459,11.584
12.08,11.678,107.69,11.459,11.553
12.16,11.678,106.12,11.49,11.553
12.24,11.678,108,11.49,11.584
12.32,11.678,106.75,11.427,11.522
12.4,11.647,106.12,11.427,11.616
12.48,11.678,107.69,11.427,11.553
12.56,11.678,105.49,11.522,11.616
12.64,11.71,106.43,11.553,11.553
12.72,11.678,105.49,11.522,11.553
12.8,11.647,104.55,11.553,11.584
12.88,11.741,105.8,11.459,11.522
12.96,11.678,107.06,11.459,11.584
13.04,11.741,104.24,11.553,11.678
13.12,11.678,105.18,11.49,11.553
13.2,11.647,107.06,11.522,11.553
13.28,11.678,104.55,11.553,11.584
13.36,11.773,105.18,11.49,11.616
13.44,11.71,105.8,11.49,11.616
13.52,11.71,104.55,11.427,11.584
13.6,11.741,103.92,11.553,11.553
13.68,11.71,103.92,11.49,11.616
13.76,11.647,105.18,11.553,11.49
13.84,11.678,104.55,11.49,11.584
13.92,11.741,103.92,11.427,11.459
14,11.647,104.86,11.459,11.49
14.08,11.773,102.67,11.49,11.365
14.16,11.773,102.67,11.522,11.71
14.24,11.427,101.41,11.396,11.616
14.32,11.396,102.04,11.082,11.176
14.4,11.145,103.61,11.02,10.957
14.48,11.773,102.35,11.647,11.647
14.56,11.773,102.35,11.584,11.678
14.64,11.773,103.61,11.616,11.647
14.72,11.773,103.92,11.584,11.71
14.8,11.804,101.73,11.616,11.773
14.88,11.773,102.04,11.616,11.647
14.96,11.71,103.29,11.584,11.678
15.04,11.71,104.86,11.522,11.616
15.12,11.741,103.61,11.522,11.678
15.2,11.804,102.98,11.584,11.647
15.28,11.773,103.92,11.616,11.71
15.36,11.773,104.24,11.584,11.678
15.44,11.773,103.92,11.553,11.71
15.52,11.741,102.98,11.522,11.616
15.6,11.804,102.67,11.584,11.71
15.68,11.741,103.61,11.584,11.616
15.76,11.867,103.92,11.584,11.71
15.84,11.835,103.29,11.616,11.647
15.92,11.71,103.29,11.584,11.647
16,11.71,103.92,11.553,11.678
16.08,11.71,104.55,11.584,11.678
16.16,11.741,102.98,11.49,11.616
16.24,11.741,104.86,11.553,11.678
16.32,11.804,104.86,11.553,11.616
16.4,11.804,103.29,11.584,11.71
16.48,11.804,103.92,11.553,11.616
16.56,11.773,103.92,11.647,11.678
16.64,11.867,103.92,11.616,11.71
16.72,11.773,104.55,11.553,11.647
16.8,11.835,103.61,11.522,11.71
16.88,11.678,106.12,11.553,11.647
16.96,11.741,106.43,11.553,11.584
17.04,11.678,105.8,11.584,11.616
17.12,11.773,106.43,11.553,11.647
17.2,11.71,106.12,11.522,11.678
17.28,11.741,106.12,11.522,11.71
17.36,11.773,106.43,11.49,11.647
17.44,11.741,106.12,11.553,11.678
17.52,11.867,105.8,11.553,11.647
17.6,11.773,108.94,11.616,11.741
17.68,11.835,105.49,11.522,11.678
17.76,11.741,106.12,11.584,11.647
17.84,11.741,107.37,11.553,11.678
17.92,11.773,107.69,11.522,11.647
18,11.773,106.12,11.584,11.616
18.08,11.773,106.12,11.522,11.678
18.16,11.835,106.12,11.647,11.71
18.24,11.71,107.06,11.584,11.678
18.32,11.804,106.43,11.553,11.678
18.4,11.773,107.06,11.553,11.678
18.48,11.71,106.75,11.584,11.678
18.56,11.773,107.69,11.616,11.741
18.64,11.773,108.31,11.522,11.616
18.72,11.71,107.37,11.522,11.584
18.8,11.741,107.06,11.553,11.647
18.88,11.71,108,11.553,11.616
18.96,11.741,107.69,11.584,11.647
19.04,11.741,108,11.553,11.678
19.12,11.773,107.69,11.522,11.647
19.2,11.773,108.94,11.553,11.616
19.28,11.741,109.57,11.553,11.584
19.36,11.678,109.25,11.553,11.71
19.44,11.835,109.57,11.584,11.71
19.52,11.678,108.94,11.584,11.616
19.6,11.804,108.63,11.522,11.678
19.68,11.773,108.63,11.49,11.678
19.76,11.804,108.63,11.49,11.647
19.84,11.804,108.63,11.49,11.678
19.92,11.741,108.63,11.553,11.678
20,11.804,109.25,11.522,11.616
20.08,11.773,110.2,11.584,11.647
20.16,11.773,111.14,11.49,11.616
20.24,11.773,109.88,11.553,11.616
20.32,11.804,110.82,11.553,11.71
20.4,12.212,0.70588,12.337,12.337
20.48,12.275,0.70588,12.337,12.337
20.56,12.306,0.39216,12.369,12.369
20.64,12.306,0.70588,12.431,12.431
20.72,12.4,0.70588,12.431,12.4
20.8,12.4,0.70588,12.337,12.4
20.88,12.369,0.70588,12.4,12.4
20.96,12.431,0.39216,12.431,12.494
21.04,12.4,0.078431,12.431,12.463
21.12,12.337,0.70588,12.431,12.369
21.2,12.431,0.39216,12.463,12.525
21.28,12.4,0.078431,12.431,12.431
21.36,12.337,0.70588,12.431,12.494
21.44,12.369,0.078431,12.463,12.463
21.52,12.431,-0.23529,12.494,12.463
21.6,12.431,0.39216,12.463,12.494
21.68,12.463,0.39216,12.494,12.494
21.76,12.4,0.39216,12.525,12.494
21.84,12.369,0.39216,12.525,12.463
21.92,12.431,-0.23529,12.494,12.525
22,12.525,0.078431,12.494,12.494
22.08,12.494,0.078431,12.463,12.494
22.16,12.463,0.39216,12.525,12.557
22.24,12.463,0.078431,12.525,12.525
22.32,12.494,0.39216,12.494,12.494
22.4,12.494,0.078431,12.494,12.525
22.48,12.494,0.39216,12.525,12.588
22.56,12.494,0.078431,12.494,12.494
22.64,12.494,0.39216,12.525,12.525
22.72,12.525,0.078431,12.525,12.588
22.8,12.463,0.39216,12.494,12.525
22.88,12.494,0.39216,12.431,12.463
22.96,12.557,0.078431,12.588,12.557
23.04,12.494,0.70588,12.588,12.494
23.12,12.494,0.39216,12.557,12.525
23.2,12.557,0.39216,12.588,12.525
23.28,12.494,0.39216,12.557,12.494
23.36,12.525,0.70588,12.494,12.62
23.44,12.494,0.39216,12.557,12.557
23.52,12.557,0.70588,12.588,12.557
23.6,12.494,-0.23529,12.525,12.525
23.68,12.557,-0.23529,12.557,12.588
23.76,12.494,0.39216,12.525,12.525
23.84,12.463,0.39216,12.525,12.494
23.92,12.494,-0.23529,12.557,12.525
24,12.525,-0.23529,12.557,12.557
24.08,12.557,0.39216,12.557,12.588
24.16,12.525,0.39216,12.588,12.557
24.24,12.494,0.39216,12.588,12.588
24.32,12.588,0.39216,12.588,12.62
24.4,12.557,0.39216,12.62,12.62
24.48,12.588,-0.23529,12.588,12.557
24.56,12.588,0.70588,12.588,12.62
24.64,12.588,0.078431,12.588,12.588
24.72,12.525,0.70588,12.588,12.557
24.8,12.557,0.70588,12.588,12.62
24.88,12.494,0.39216,12.588,12.588
24.96,12.494,0.078431,12.588,12.557
25.04,12.494,1.3333,12.557,12.557
25.12,12.557,0.39216,12.557,12.62
25.2,12.525,0.39216,12.62,12.557
25.28,12.557,0.70588,12.62,12.557
25.36,12.525,0.078431,12.62,12.557
25.44,12.588,0.078431,12.525,12.62
25.52,12.714,-0.23529,12.62,12.651
25.6,12.525,0.078431,12.588,12.62
25.68,12.557,0.39216,12.62,12.588
25.76,12.588,0.39216,12.588,12.525
25.84,12.557,0.70588,12.588,12.62
25.92,12.62,0.078431,12.62,12.588
26,12.557,0.39216,12.494,12.62
26.08,12.62,0.70588,12.62,12.588
26.16,12.525,0.70588,12.588,12.557
26.24,12.588,1.0196,12.62,12.557
26.32,12.588,0.70588,12.62,12.557
26.4,12.62,0.39216,12.588,12.588
26.48,12.494,0.39216,12.588,12.588
